{"results":[{"visibility":"public","status":"past","maybe_rsvp_count":0,"venue":{"id":1523419,"lon":4.893759,"repinned":false,"name":"Kapitein Zeppos","address_1":"Gebed Zonder End 5","lat":52.369564,"country":"nl","city":"Amsterdam"},"id":"18245051","utc_offset":7200000,"time":1306171800000,"waitlist_count":0,"created":1305297665000,"yes_rsvp_count":18,"updated":1306950839000,"event_url":"http:\/\/www.meetup.com\/Appsterdam\/events\/18245051\/","headcount":0,"name":"Let's discuss what we want out of the Group.","rating":{"count":7,"average":4.289999961853027},"group":{"id":1853731,"group_lat":52.369998931884766,"name":"Appsterdam","group_lon":4.889999866485596,"join_mode":"open","urlname":"Appsterdam","who":"Appsterdammers"}},{"status":"past","visibility":"public","maybe_rsvp_count":0,"venue":{"id":2437691,"lon":4.867978,"repinned":false,"name":"Cafe Bax","address_1":"Ten Katestraat 119","lat":52.365589,"country":"nl","city":"Amsterdam"},"id":"prxrvypkbjb","utc_offset":7200000,"time":1309971600000,"waitlist_count":0,"updated":1309976384000,"yes_rsvp_count":4,"created":1309870952000,"event_url":"http:\/\/www.meetup.com\/Appsterdam\/events\/24605181\/","description":"<p>Join Appsterdam for a weekly Meeten en Drinken at Café Bax, 19.00h.<\/p>","how_to_find_us":"Come to Café Bax","name":"Weekly Meeten en Drinken","headcount":0,"rating":{"count":0,"average":0},"group":{"id":1853731,"group_lat":52.369998931884766,"name":"Appsterdam","group_lon":4.889999866485596,"join_mode":"open","urlname":"Appsterdam","who":"Appsterdammers"}}],"meta":{"lon":"","count":2,"signed_url":"http:\/\/api.meetup.com\/2\/events?status=past&order=time&limited_events=False&group_urlname=Appsterdam&desc=false&offset=0&format=json&page=2&fields=&sig_id=66039422&sig=383ebefc1b70d30abc18f93be3dff313acc689ef","link":"https:\/\/api.meetup.com\/2\/events","next":"https:\/\/api.meetup.com\/2\/events?key=1f572e7315633f525410127f732a136f&status=past&order=time&limited_events=False&group_urlname=Appsterdam&desc=false&offset=1&format=json&page=2&fields=&sign=True","total_count":629,"url":"https:\/\/api.meetup.com\/2\/events?key=1f572e7315633f525410127f732a136f&status=past&order=time&limited_events=False&group_urlname=Appsterdam&desc=false&offset=0&format=json&page=2&fields=&sign=True","id":"","title":"Meetup Events v2","updated":1404163234000,"description":"Access Meetup events using a group, member, or event id. Events in private groups are available only to authenticated members of those groups. To search events by topic or location, see [Open Events](\/meetup_api\/docs\/2\/open_events).","method":"Events","lat":""}}
